SobelAccelerator/SobelAccelerator.sim/sim_1/behav/xsim/simulate.log
Vivado Simulator 2020.1.1
Time resolution is 1 ps
      0       0       0       0       0       0       0       0       0       0       0       0       0       0       0       0       0       0       0       0       0       0       0       0       0 
      0     -27     -23     -16     -29     -24     -12     -28     -16      -4     -46     -55      -6      18       1      -8      -6       1     -22     -56     -30      41      79      60       0 
      0     -23     -27     -44     -25      22      23      14      10     -10     -34     -72     -81     -45     -11      -3      -1       4       2       2       3     -16     -44     -20       0 
      0      24      44      37     -19     -36      11      46      10     -19       7       5     -21      -6      13      -8       1      32      23      15      16      -5     -21      -8       0 
      0      50      26      24     -10     -48     -20      16     -18     -47      -9      30       3     -33     -14      14      -5     -50     -40       9      14      -2      -9      -5       0 
      0      -3     -10     -39     -13      25       6     -26      -2      24      -2      -8       9     -25     -58      -7      36      36      59      59      29       4     -28     -35       0 
      0     -43     -31      26      69      59      29       6       4      -7     -42     -28      34      47      29     -10     -39       4      46      30       5      -8     -26     -22       0 
      0     -26     -27       8      41      28      -8     -11      11      -1      -7      16      12      -3      -1     -29     -44     -25     -24      -3      14     -12     -22       0       0 
      0      -2       9     -11     -46     -45     -34     -23      12      22      17      12       9      11     -28     -47     -15     -21     -64     -72     -52     -30      19      49       0 
      0      30      13       8      19       5       0      17      -5      -2      45      40       5      14      43      51      12     -46     -39     -17     -32     -30     -11     -19       0 
      0      17      21       3      10      10      -1     -15      -9      40      67      55      34      17      23      44      57      61      54      29      28      55      56      -4       0 
      0     -27     -23     -16     -29     -24     -12     -28     -16      -4     -46     -55      -6      18       1      -8      -6       1     -22     -56     -30      41      79      60       0 
      0     -23     -27     -44     -25      22      23      14      10     -10     -34     -72     -81     -45     -11      -3      -1       4       2       2       3     -16     -44     -20       0 
      0      24      44      37     -19     -36      11      46      10     -19       7       5     -21      -6      13      -8       1      32      23      15      16      -5     -21      -8       0 
      0      50      26      24     -10     -48     -20      16     -18     -47      -9      30       3     -33     -14      14      -5     -50     -40       9      14      -2      -9      -5       0 
      0      -3     -10     -39     -13      25       6     -26      -2      24      -2      -8       9     -25     -58      -7      36      36      59      59      29       4     -28     -35       0 
      0     -43     -31      26      69      59      29       6       4      -7     -42     -28      34      47      29     -10     -39       4      46      30       5      -8     -26     -22       0 
      0     -26     -27       8      41      28      -8     -11      11      -1      -7      16      12      -3      -1     -29     -44     -25     -24      -3      14     -12     -22       0       0 
      0      -2       9     -11     -46     -45     -34     -23      12      22      17      12       9      11     -28     -47     -15     -21     -64     -72     -52     -30      19      49       0 
      0      30      13       8      19       5       0      17      -5      -2      45      40       5      14      43      51      12     -46     -39     -17     -32     -30     -11     -19       0 
      0      17      21   